2024_release(5_Stage)/SP.vcd
$date
	Mon Jan 06 03:29:15 2025
$end
$version
	Icarus Verilog
$end
$timescale
	10ps
$end
$scope module TESTBED $end
$var wire 1 ! rst_n $end
$var wire 1 " out_valid $end
$var wire 1 # mem_wen $end
$var wire 32 $ mem_dout [31:0] $end
$var wire 32 % mem_din [31:0] $end
$var wire 12 & mem_addr [11:0] $end
$var wire 32 ' inst_addr [31:0] $end
$var wire 32 ( inst [31:0] $end
$var wire 1 ) in_valid $end
$var wire 1 * clk $end
$var integer 32 + i [31:0] $end
$scope module My_MEM $end
$var wire 1 , CEN $end
$var wire 1 - OEN $end
$var wire 1 . _CEN $end
$var wire 1 / _CLK $end
$var wire 1 0 _OEN $end
$var wire 1 1 _OENi $end
$var wire 32 2 _Q [31:0] $end
$var wire 1 3 _WEN $end
$var wire 1 4 re_flag $end
$var wire 1 5 re_data_flag $end
$var wire 32 6 _D [31:0] $end
$var wire 12 7 _A [11:0] $end
$var wire 1 # WEN $end
$var wire 32 8 Q [31:0] $end
$var wire 32 9 D [31:0] $end
$var wire 1 * CLK $end
$var wire 12 : A [11:0] $end
$var parameter 32 ; BITS $end
$var parameter 32 < addr_width $end
$var parameter 12 = addrx $end
$var parameter 32 > word_depth $end
$var parameter 32 ? wordx $end
$var reg 12 @ Ai [11:0] $end
$var reg 1 A CENi $end
$var reg 32 B Di [31:0] $end
$var reg 1 C LAST_CLK $end
$var reg 12 D LAST_NOT_A [11:0] $end
$var reg 1 E LAST_NOT_CEN $end
$var reg 1 F LAST_NOT_CLK_MINH $end
$var reg 1 G LAST_NOT_CLK_MINL $end
$var reg 1 H LAST_NOT_CLK_PER $end
$var reg 32 I LAST_NOT_D [31:0] $end
$var reg 1 J LAST_NOT_WEN $end
$var reg 32 K LAST_Qi [31:0] $end
$var reg 12 L LATCHED_A [11:0] $end
$var reg 1 M LATCHED_CEN $end
$var reg 32 N LATCHED_D [31:0] $end
$var reg 1 O LATCHED_WEN $end
$var reg 12 P NOT_A [11:0] $end
$var reg 1 Q NOT_A0 $end
$var reg 1 R NOT_A1 $end
$var reg 1 S NOT_A10 $end
$var reg 1 T NOT_A11 $end
$var reg 1 U NOT_A2 $end
$var reg 1 V NOT_A3 $end
$var reg 1 W NOT_A4 $end
$var reg 1 X NOT_A5 $end
$var reg 1 Y NOT_A6 $end
$var reg 1 Z NOT_A7 $end
$var reg 1 [ NOT_A8 $end
$var reg 1 \ NOT_A9 $end
$var reg 1 ] NOT_CEN $end
$var reg 1 ^ NOT_CLK_MINH $end
$var reg 1 _ NOT_CLK_MINL $end
$var reg 1 ` NOT_CLK_PER $end
$var reg 32 a NOT_D [31:0] $end
$var reg 1 b NOT_D0 $end
$var reg 1 c NOT_D1 $end
$var reg 1 d NOT_D10 $end
$var reg 1 e NOT_D11 $end
$var reg 1 f NOT_D12 $end
$var reg 1 g NOT_D13 $end
$var reg 1 h NOT_D14 $end
$var reg 1 i NOT_D15 $end
$var reg 1 j NOT_D16 $end
$var reg 1 k NOT_D17 $end
$var reg 1 l NOT_D18 $end
$var reg 1 m NOT_D19 $end
$var reg 1 n NOT_D2 $end
$var reg 1 o NOT_D20 $end
$var reg 1 p NOT_D21 $end
$var reg 1 q NOT_D22 $end
$var reg 1 r NOT_D23 $end
$var reg 1 s NOT_D24 $end
$var reg 1 t NOT_D25 $end
$var reg 1 u NOT_D26 $end
$var reg 1 v NOT_D27 $end
$var reg 1 w NOT_D28 $end
$var reg 1 x NOT_D29 $end
$var reg 1 y NOT_D3 $end
$var reg 1 z NOT_D30 $end
$var reg 1 { NOT_D31 $end
$var reg 1 | NOT_D4 $end
$var reg 1 } NOT_D5 $end
$var reg 1 ~ NOT_D6 $end
$var reg 1 !" NOT_D7 $end
$var reg 1 "" NOT_D8 $end
$var reg 1 #" NOT_D9 $end
$var reg 1 $" NOT_WEN $end
$var reg 32 %" Qi [31:0] $end
$var reg 1 &" WENi $end
$scope function valid_address $end
$var reg 12 '" a [11:0] $end
$upscope $end
$scope task latch_inputs $end
$upscope $end
$scope task mem_cycle $end
$upscope $end
$scope task process_violations $end
$upscope $end
$scope task read_mem $end
$var reg 1 (" r_wb $end
$var reg 1 )" xflag $end
$upscope $end
$scope task update_last_notifiers $end
$upscope $end
$scope task update_logic $end
$upscope $end
$scope task update_notifier_buses $end
$upscope $end
$scope task write_mem $end
$var reg 12 *" a [11:0] $end
$var reg 32 +" d [31:0] $end
$upscope $end
$scope task write_mem_x $end
$var reg 12 ," a [11:0] $end
$upscope $end
$scope task x_inputs $end
$var integer 32 -" n [31:0] $end
$upscope $end
$scope task x_mem $end
$var integer 32 ." n [31:0] $end
$upscope $end
$upscope $end
$scope module My_PATTERN $end
$var wire 1 " out_valid $end
$var wire 32 /" inst_addr [31:0] $end
$var reg 1 * clk $end
$var reg 1 ) in_valid $end
$var reg 32 0" inst [31:0] $end
$var reg 1 ! rst_n $end
$var real 1 1" CYCLE $end
$var integer 32 2" address [31:0] $end
$var integer 32 3" func [31:0] $end
$var integer 32 4" golden_inst_addr [31:0] $end
$var integer 32 5" i [31:0] $end
$var integer 32 6" immediate [31:0] $end
$var integer 32 7" opcode [31:0] $end
$var integer 32 8" out_counter [31:0] $end
$var integer 32 9" out_max_latency [31:0] $end
$var integer 32 :" pat [31:0] $end
$var integer 32 ;" pat_num [31:0] $end
$var integer 32 <" rd [31:0] $end
$var integer 32 =" rs [31:0] $end
$var integer 32 >" rt [31:0] $end
$var integer 32 ?" seed [31:0] $end
$var integer 32 @" shamt [31:0] $end
$var integer 32 A" t [31:0] $end
$scope task check_ans_task $end
$upscope $end
$scope task check_memory_task $end
$upscope $end
$scope task display_fail_task $end
$upscope $end
$scope task display_pass_task $end
$upscope $end
$scope task input_task $end
$upscope $end
$scope task out_valid_wait_task $end
$upscope $end
$scope task reset_check_task $end
$upscope $end
$upscope $end
$scope module My_SP $end
$var wire 1 * clk $end
$var wire 1 ) in_valid $end
$var wire 32 B" inst [31:0] $end
$var wire 32 C" mem_dout [31:0] $end
$var wire 1 ! rst_n $end
$var reg 32 D" alu_out [31:0] $end
$var reg 3 E" delay_counter [2:0] $end
$var reg 6 F" funct [5:0] $end
$var reg 32 G" immediate [31:0] $end
$var reg 32 H" inst_addr [31:0] $end
$var reg 12 I" mem_addr [11:0] $end
$var reg 32 J" mem_din [31:0] $end
$var reg 1 # mem_wen $end
$var reg 6 K" opcode [5:0] $end
$var reg 1 " out_valid $end
$var reg 32 L" pc [31:0] $end
$var reg 5 M" rd [4:0] $end
$var reg 5 N" rs [4:0] $end
$var reg 5 O" rt [4:0] $end
$var reg 5 P" shamt [4:0] $end
$var integer 32 Q" i [31:0] $end
$upscope $end
$upscope $end
$scope module TESTBED $end
$scope module My_SP $end
$var reg 32 R" \r[0] [31:0] $end
$upscope $end
$upscope $end
$scope module TESTBED $end
$scope module My_SP $end
$var reg 32 S" \r[1] [31:0] $end
$upscope $end
$upscope $end
$scope module TESTBED $end
$scope module My_SP $end
$var reg 32 T" \r[2] [31:0] $end
$upscope $end
$upscope $end
$scope module TESTBED $end
$scope module My_SP $end
$var reg 32 U" \r[3] [31:0] $end
$upscope $end
$upscope $end
$scope module TESTBED $end
$scope module My_SP $end
$var reg 32 V" \r[4] [31:0] $end
$upscope $end
$upscope $end
$scope module TESTBED $end
$scope module My_SP $end
$var reg 32 W" \r[5] [31:0] $end
$upscope $end
$upscope $end
$scope module TESTBED $end
$scope module My_SP $end
$var reg 32 X" \r[6] [31:0] $end
$upscope $end
$upscope $end
$scope module TESTBED $end
$scope module My_SP $end
$var reg 32 Y" \r[7] [31:0] $end
$upscope $end
$upscope $end
$scope module TESTBED $end
$scope module My_SP $end
$var reg 32 Z" \r[8] [31:0] $end
$upscope $end
$upscope $end
$scope module TESTBED $end
$scope module My_SP $end
$var reg 32 [" \r[9] [31:0] $end
$upscope $end
$upscope $end
$scope module TESTBED $end
$scope module My_SP $end
$var reg 32 \" \r[10] [31:0] $end
$upscope $end
$upscope $end
$scope module TESTBED $end
$scope module My_SP $end
$var reg 32 ]" \r[11] [31:0] $end
$upscope $end
$upscope $end
$scope module TESTBED $end
$scope module My_SP $end
$var reg 32 ^" \r[12] [31:0] $end
$upscope $end
$upscope $end
$scope module TESTBED $end
$scope module My_SP $end
$var reg 32 _" \r[13] [31:0] $end
$upscope $end
$upscope $end
$scope module TESTBED $end
$scope module My_SP $end
$var reg 32 `" \r[14] [31:0] $end
$upscope $end
$upscope $end
$scope module TESTBED $end
$scope module My_SP $end
$var reg 32 a" \r[15] [31:0] $end
$upscope $end
$upscope $end
$scope module TESTBED $end
$scope module My_SP $end
$var reg 32 b" \r[16] [31:0] $end
$upscope $end
$upscope $end
$scope module TESTBED $end
$scope module My_SP $end
$var reg 32 c" \r[17] [31:0] $end
$upscope $end
$upscope $end
$scope module TESTBED $end
$scope module My_SP $end
$var reg 32 d" \r[18] [31:0] $end
$upscope $end
$upscope $end
$scope module TESTBED $end
$scope module My_SP $end
$var reg 32 e" \r[19] [31:0] $end
$upscope $end
$upscope $end
$scope module TESTBED $end
$scope module My_SP $end
$var reg 32 f" \r[20] [31:0] $end
$upscope $end
$upscope $end
$scope module TESTBED $end
$scope module My_SP $end
$var reg 32 g" \r[21] [31:0] $end
$upscope $end
$upscope $end
$scope module TESTBED $end
$scope module My_SP $end
$var reg 32 h" \r[22] [31:0] $end
$upscope $end
$upscope $end
$scope module TESTBED $end
$scope module My_SP $end
$var reg 32 i" \r[23] [31:0] $end
$upscope $end
$upscope $end
$scope module TESTBED $end
$scope module My_SP $end
$var reg 32 j" \r[24] [31:0] $end
$upscope $end
$upscope $end
$scope module TESTBED $end
$scope module My_SP $end
$var reg 32 k" \r[25] [31:0] $end
$upscope $end
$upscope $end
$scope module TESTBED $end
$scope module My_SP $end
$var reg 32 l" \r[26] [31:0] $end
$upscope $end
$upscope $end
$scope module TESTBED $end
$scope module My_SP $end
$var reg 32 m" \r[27] [31:0] $end
$upscope $end
$upscope $end
$scope module TESTBED $end
$scope module My_SP $end
$var reg 32 n" \r[28] [31:0] $end
$upscope $end
$upscope $end
$scope module TESTBED $end
$scope module My_SP $end
$var reg 32 o" \r[29] [31:0] $end
$upscope $end
$upscope $end
$scope module TESTBED $end
$scope module My_SP $end
$var reg 32 p" \r[30] [31:0] $end
$upscope $end
$upscope $end
$scope module TESTBED $end
$scope module My_SP $end
$var reg 32 q" \r[31] [31:0] $end
$upscope $end
$upscope $end
$enddefinitions $end
$comment Show the parameter values. $end
$dumpall
bx ?
b1000000000000 >
bx =
b1100 <
b100000 ;
$end
#0
$dumpvars
bx q"
bx p"
bx o"
bx n"
bx m"
bx l"
bx k"
bx j"
bx i"
bx h"
bx g"
bx f"
bx e"
bx d"
bx c"
bx b"
bx a"
bx `"
bx _"
bx ^"
bx ]"
bx \"
bx ["
bx Z"
bx Y"
bx X"
bx W"
bx V"
bx U"
bx T"
bx S"
bx R"
bx Q"
bx P"
bx O"
bx N"
bx M"
bx L"
bx K"
bx J"
bx I"
bx H"
bx G"
bx F"
bx E"
bx D"
bx C"
bx B"
bx A"
bx @"
b1000000 ?"
bx >"
bx ="
bx <"
b1111101000 ;"
bx :"
b1010 9"
bx 8"
bx 7"
bx 6"
b100000 5"
b0 4"
bx 3"
bx 2"
r10 1"
bx 0"
bx /"
bx ."
bx -"
bx ,"
bx +"
bx *"
x)"
x("
bx '"
x&"
bx %"
x$"
x#"
x""
x!"
x~
x}
x|
x{
xz
xy
xx
xw
xv
xu
xt
xs
xr
xq
xp
xo
xn
xm
xl
xk
xj
xi
xh
xg
xf
xe
xd
xc
xb
bx a
x`
x_
x^
x]
x\
x[
xZ
xY
xX
xW
xV
xU
xT
xS
xR
xQ
bx P
xO
bx N
xM
bx L
bx K
xJ
bx I
xH
xG
xF
xE
bx D
0C
bx B
xA
bx @
bx :
bx 9
bx 8
bx 7
bx 6
x5
14
x3
bx 2
01
00
0/
0.
0-
0,
b100000 +
0*
0)
bx (
bx '
bx &
bx %
bx $
x#
x"
1!
$end
#500
0*
#1000
b0 6
b0 7
05
13
b0 q"
b0 p"
b0 o"
b0 n"
b0 m"
b0 l"
b0 k"
b0 j"
b0 i"
b0 h"
b0 g"
b0 f"
b0 e"
b0 d"
b0 c"
b0 b"
b0 a"
b0 `"
b0 _"
b0 ^"
b0 ]"
b0 \"
b0 ["
b0 Z"
b0 Y"
b0 X"
b0 W"
b0 V"
b0 U"
b0 T"
b0 S"
b0 R"
b111 E"
b0 %
b0 9
b0 J"
b0 &
b0 :
b0 I"
1#
0"
b0 '
b0 /"
b0 H"
b0 L"
b100000 Q"
0!
#2000
b100000 5"
1!
#3000
b11111111111111111111111111111101 $
b11111111111111111111111111111101 8
b11111111111111111111111111111101 C"
1C
b11111111111111111111111111111101 2
b11111111111111111111111111111101 %"
b0 '"
0)"
1("
b0 B
b0 @
1&"
0A
0M
1O
b0 N
b0 L
1/
b11 A"
b10000110111001101000001 ?"
1*
#3500
0C
0/
0*
#4000
1C
b11111111111111111111111111111101 K
1/
1*
#4500
0C
0/
0*
#5000
1C
1/
1*
#5500
0C
0/
1)
b1001000010101000000000110 (
b1001000010101000000000110 0"
b1001000010101000000000110 B"
b0 :"
0*
#6000
b100 L"
b11111111111111111111111111111111 D"
b0 E"
1C
1/
b101000000000110 G"
b110 F"
b0 P"
b1010 M"
b1 O"
b1001 N"
b0 K"
1*
#6500
0C
0/
b1 8"
0)
bx (
bx 0"
bx B"
0*
#7000
b111111111111 7
b11111111111111111111111111111111 \"
b111111111111 &
b111111111111 :
b111111111111 I"
b1 E"
1C
1/
1*
#7500
0C
0/
b10 8"
0*
#8000
b100 '
b100 /"
b100 H"
b10 E"
b101001 $
b101001 8
b101001 C"
1C
b101001 2
b101001 %"
b111111111111 '"
b111111111111 @
b111111111111 L
1/
1*
#8500
0C
0/
b11 8"
0*
#9000
b11 E"
1C
b101001 K
1/
1*
#9500
0C
0/
b100 8"
0*
#10000
1"
b100 E"
1C
1/
1*
#10500
0C
0/
b100000 5"
b100 4"
b1001000010101000000000110 2"
b101000000000110 6"
b110 3"
b0 @"
b1010 <"
b1 >"
b1001 ="
b0 7"
0*
#11000
0"
b0 E"
1C
1/
1*
#11500
0C
0/
1)
b10100000000000000111100111100 (
b10100000000000000111100111100 0"
b10100000000000000111100111100 B"
b1 :"
0*
#12000
b1000 L"
1C
1/
b111100111100 G"
b111100 F"
b11100 P"
b1 M"
b0 O"
b0 N"
b101 K"
1*
#12500
0C
0/
b1 8"
0)
bx (
bx 0"
bx B"
0*
#13000
b111100111100 7
b111100111100 &
b111100111100 :
b111100111100 I"
b1 E"
1C
1/
1*
#13500
0C
0/
b10 8"
0*
#14000
b1000 '
b1000 /"
b1000 H"
b10 E"
b1100 $
b1100 8
b1100 C"
1C
b1100 2
b1100 %"
b111100111100 '"
b111100111100 @
b111100111100 L
1/
1*
#14500
0C
0/
b11 8"
0*
#15000
b1100 R"
b11 E"
1C
b1100 K
1/
1*
#15500
0C
0/
b100 8"
0*
#16000
1"
b100 E"
1C
1/
1*
#16500
0C
0/
b100000 5"
b1000 4"
b111100111100 2"
b111100111100 6"
b111100 3"
b11100 @"
b1 <"
b0 >"
b0 ="
b101 7"
0*
#17000
0"
b0 E"
1C
1/
1*
#17500
0C
0/
1)
b100100000101100000000000010100 (
b100100000101100000000000010100 0"
b100100000101100000000000010100 B"
b10 :"
0*
#18000
b1100 L"
b101000000000000000000 h"
1C
1/
b10100 G"
b10100 F"
b0 P"
b0 M"
b10110 O"
b1001 K"
1*
#18500
0C
0/
b1 8"
0)
bx (
bx 0"
bx B"
0*
#19000
b111111111111 7
b111111111111 &
b111111111111 :
b111111111111 I"
b1 E"
1C
1/
1*
#19500
0C
0/
b10 8"
0*
#20000
b1100 '
b1100 /"
b1100 H"
b10 E"
b101001 $
b101001 8
b101001 C"
1C
b101001 2
b101001 %"
b111111111111 '"
b111111111111 @
b111111111111 L
1/
1*
#20500
0C
0/
b11 8"
0*
#21000
b11 E"
1C
b101001 K
1/
1*
#21500
0C
0/
b100 8"
0*
#22000
1"
b100 E"
1C
1/
1*
#22500
0C
0/
b100000 5"
b1100 4"
b101100000000000010100 2"
b10100 6"
b10100 3"
b0 @"
b0 <"
b10110 >"
b1001 7"
0*
#23000
0"
b0 E"
1C
1/
1*
#23500
0C
0/
1)
b10100001000010000001111111110 (
b10100001000010000001111111110 0"
b10100001000010000001111111110 B"
b11 :"
0*
#24000
b10000 L"
1C
1/
b1111111110 G"
b111110 F"
b1111 P"
b1 O"
b1 N"
b101 K"
1*
#24500
0C
0/
b1 8"
0)
bx (
bx 0"
bx B"
0*
#25000
b1111111110 7
b1111111110 &
b1111111110 :
b1111111110 I"
b1 E"
1C
1/
1*
#25500
0C
0/
b10 8"
0*
#26000
b10000 '
b10000 /"
b10000 H"
b10 E"
b0 $
b0 8
b0 C"
1C
b0 2
b0 %"
b1111111110 '"
b1111111110 @
b1111111110 L
1/
1*
#26500
0C
0/
b11 8"
0*
#27000
b0 S"
b11 E"
1C
b0 K
1/
1*
#27500
0C
0/
b100 8"
0*
#28000
1"
b100 E"
1C
1/
1*
#28500
0C
0/
b100000 5"
b10000 4"
b1000010000001111111110 2"
b1111111110 6"
b111110 3"
b1111 @"
b1 >"
b1 ="
b101 7"
0*
#29000
0"
b0 E"
1C
1/
1*
#29500
0C
0/
1)
b10100010000100000110011101101 (
b10100010000100000110011101101 0"
b10100010000100000110011101101 B"
b100 :"
0*
#30000
b10100 L"
1C
1/
b110011101101 G"
b101101 F"
b10011 P"
b1 M"
b10 O"
b10 N"
1*
#30500
0C
0/
b1 8"
0)
bx (
bx 0"
bx B"
0*
#31000
b110011101101 7
b110011101101 &
b110011101101 :
b110011101101 I"
b1 E"
1C
1/
1*
#31500
0C
0/
b10 8"
0*
#32000
b10100 '
b10100 /"
b10100 H"
b10 E"
b11100 $
b11100 8
b11100 C"
1C
b11100 2
b11100 %"
b110011101101 '"
b110011101101 @
b110011101101 L
1/
1*
#32500
0C
0/
b11 8"
0*
#33000
b11100 T"
b11 E"
1C
b11100 K
1/
1*
#33500
0C
0/
b100 8"
0*
#34000
1"
b100 E"
1C
1/
1*
#34500
0C
0/
b100000 5"
b10100 4"
b10000100000110011101101 2"
b110011101101 6"
b101101 3"
b10011 @"
b1 <"
b10 >"
b10 ="
0*
#35000
0"
b0 E"
1C
1/
1*
#35500
0C
0/
1)
b10100011000110000000010001010 (
b10100011000110000000010001010 0"
b10100011000110000000010001010 B"
b101 :"
0*
#36000
b11000 L"
1C
1/
b10001010 G"
b1010 F"
b10 P"
b0 M"
b11 O"
b11 N"
1*
#36500
0C
0/
b1 8"
0)
bx (
bx 0"
bx B"
0*
#37000
b10001010 7
b10001010 &
b10001010 :
b10001010 I"
b1 E"
1C
1/
1*
#37500
0C
0/
b10 8"
0*
#38000
b11000 '
b11000 /"
b11000 H"
b10 E"
b101111 $
b101111 8
b101111 C"
1C
b101111 2
b101111 %"
b10001010 '"
b10001010 @
b10001010 L
1/
1*
#38500
0C
0/
b11 8"
0*
#39000
b101111 U"
b11 E"
1C
b101111 K
1/
1*
#39500
0C
0/
b100 8"
0*
#40000
1"
b100 E"
1C
1/
1*
#40500
0C
0/
b100000 5"
b11000 4"
b11000110000000010001010 2"
b10001010 6"
b1010 3"
b10 @"
b0 <"
b11 >"
b11 ="
0*
#41000
0"
b0 E"
1C
1/
1*
#41500
0C
0/
1)
b10100100001000000011010000011 (
b10100100001000000011010000011 0"
b10100100001000000011010000011 B"
b110 :"
0*
#42000
b11100 L"
1C
1/
b11010000011 G"
b11 F"
b11010 P"
b100 O"
b100 N"
1*
#42500
0C
0/
b1 8"
0)
bx (
bx 0"
bx B"
0*
#43000
b11010000011 7
b11010000011 &
b11010000011 :
b11010000011 I"
b1 E"
1C
1/
1*
#43500
0C
0/
b10 8"
0*
#44000
b11100 '
b11100 /"
b11100 H"
b10 E"
b110000 $
b110000 8
b110000 C"
1C
b110000 2
b110000 %"
b11010000011 '"
b11010000011 @
b11010000011 L
1/
1*
#44500
0C
0/
b11 8"
0*
#45000
b110000 V"
b11 E"
1C
b110000 K
1/
1*
#45500
0C
0/
b100 8"
0*
#46000
1"
b100 E"
1C
1/
1*
#46500
0C
0/
b100000 5"
b11100 4"
b100001000000011010000011 2"
b11010000011 6"
b11 3"
b11010 @"
b100 >"
b100 ="
0*
#47000
0"
b0 E"
1C
1/
1*
#47500
0C
0/
1)
b100100000101100000000000000000 (
b100100000101100000000000000000 0"
b100100000101100000000000000000 B"
b111 :"
0*
#48000
b100000 L"
b0 h"
1C
1/
b0 G"
b0 F"
b0 P"
b10110 O"
b0 N"
b1001 K"
1*
#48500
0C
0/
b1 8"
0)
bx (
bx 0"
bx B"
0*
#49000
b111111111111 7
b111111111111 &
b111111111111 :
b111111111111 I"
b1 E"
1C
1/
1*
#49500
0C
0/
b10 8"
0*
#50000
b100000 '
b100000 /"
b100000 H"
b10 E"
b101001 $
b101001 8
b101001 C"
1C
b101001 2
b101001 %"
b111111111111 '"
b111111111111 @
b111111111111 L
1/
1*
#50500
0C
0/
b11 8"
0*
#51000
b11 E"
1C
b101001 K
1/
1*
#51500
0C
0/
b100 8"
0*
#52000
1"
b100 E"
1C
1/
1*
#52500
0C
0/
b100000 5"
b100000 4"
b101100000000000000000 2"
b0 6"
b0 3"
b0 @"
b10110 >"
b0 ="
b1001 7"
0*
#53000
0"
b0 E"
1C
1/
1*
#53500
0C
0/
1)
b10100101001010000100010011000 (
b10100101001010000100010011000 0"
b10100101001010000100010011000 B"
b1000 :"
0*
#54000
b100100 L"
1C
1/
b100010011000 G"
b11000 F"
b10 P"
b1 M"
b101 O"
b101 N"
b101 K"
1*
#54500
0C
0/
b1 8"
0)
bx (
bx 0"
bx B"
0*
#55000
b100010011000 7
b100010011000 &
b100010011000 :
b100010011000 I"
b1 E"
1C
1/
1*
#55500
0C
0/
b10 8"
0*
#56000
b100100 '
b100100 /"
b100100 H"
b10 E"
b11111111111111111111111111111110 $
b11111111111111111111111111111110 8
b11111111111111111111111111111110 C"
1C
b11111111111111111111111111111110 2
b11111111111111111111111111111110 %"
b100010011000 '"
b100010011000 @
b100010011000 L
1/
1*
#56500
0C
0/
b11 8"
0*
#57000
b11111111111111111111111111111110 W"
b11 E"
1C
b11111111111111111111111111111110 K
1/
1*
#57500
0C
0/
b100 8"
0*
#58000
1"
b100 E"
1C
1/
1*
#58500
0C
0/
b100000 5"
b100100 4"
b101001010000100010011000 2"
b100010011000 6"
b11000 3"
b10 @"
b1 <"
b101 >"
b101 ="
b101 7"
0*
#59000
0"
b0 E"
1C
1/
1*
#59500
0C
0/
1)
b10100110001100000011001110001 (
b10100110001100000011001110001 0"
b10100110001100000011001110001 B"
b1001 :"
0*
#60000
b101000 L"
1C
1/
b11001110001 G"
b110001 F"
b11001 P"
b0 M"
b110 O"
b110 N"
1*
#60500
0C
0/
b1 8"
0)
bx (
bx 0"
bx B"
0*
#61000
b11001110001 7
b11001110001 &
b11001110001 :
b11001110001 I"
b1 E"
1C
1/
1*
#61500
0C
0/
b10 8"
0*
#62000
b101000 '
b101000 /"
b101000 H"
b10 E"
b11111111111111111111111111110111 $
b11111111111111111111111111110111 8
b11111111111111111111111111110111 C"
1C
b11111111111111111111111111110111 2
b11111111111111111111111111110111 %"
b11001110001 '"
b11001110001 @
b11001110001 L
1/
1*
#62500
0C
0/
b11 8"
0*
#63000
b11111111111111111111111111110111 X"
b11 E"
1C
b11111111111111111111111111110111 K
1/
1*
#63500
0C
0/
b100 8"
0*
#64000
1"
b100 E"
1C
1/
1*
#64500
0C
0/
b100000 5"
b101000 4"
b110001100000011001110001 2"
b11001110001 6"
b110001 3"
b11001 @"
b0 <"
b110 >"
b110 ="
0*
#65000
0"
b0 E"
1C
1/
1*
#65500
0C
0/
1)
b10100111001110000010010110111 (
b10100111001110000010010110111 0"
b10100111001110000010010110111 B"
b1010 :"
0*
#66000
b101100 L"
1C
1/
b10010110111 G"
b110111 F"
b10010 P"
b111 O"
b111 N"
1*
#66500
0C
0/
b1 8"
0)
bx (
bx 0"
bx B"
0*
#67000
b10010110111 7
b10010110111 &
b10010110111 :
b10010110111 I"
b1 E"
1C
1/
1*
#67500
0C
0/
b10 8"
0*
#68000
b101100 '
b101100 /"
b101100 H"
b10 E"
b110000 $
b110000 8
b110000 C"
1C
b110000 2
b110000 %"
b10010110111 '"
b10010110111 @
b10010110111 L
1/
1*
#68500
0C
0/
b11 8"
0*
#69000
b110000 Y"
b11 E"
1C
b110000 K
1/
1*
#69500
0C
0/
b100 8"
0*
#70000
1"
b100 E"
1C
1/
1*
#70500
0C
0/
b100000 5"
b101100 4"
b111001110000010010110111 2"
b10010110111 6"
b110111 3"
b10010 @"
b111 >"
b111 ="
0*
#71000
0"
b0 E"
1C
1/
1*
#71500
0C
0/
1)
b10101000010000000001010001101 (
b10101000010000000001010001101 0"
b10101000010000000001010001101 B"
b1011 :"
0*
#72000
b110000 L"
1C
1/
b1010001101 G"
b1101 F"
b1010 P"
b1000 O"
b1000 N"
1*
#72500
0C
0/
b1 8"
0)
bx (
bx 0"
bx B"
0*
#73000
b1010001101 7
b1010001101 &
b1010001101 :
b1010001101 I"
b1 E"
1C
1/
1*
#73500
0C
0/
b10 8"
0*
#74000
b110000 '
b110000 /"
b110000 H"
b10 E"
b11111111111111111111111111111111 $
b11111111111111111111111111111111 8
b11111111111111111111111111111111 C"
1C
b11111111111111111111111111111111 2
b11111111111111111111111111111111 %"
b1010001101 '"
b1010001101 @
b1010001101 L
1/
1*
#74500
0C
0/
b11 8"
0*
#75000
b11111111111111111111111111111111 Z"
b11 E"
1C
b11111111111111111111111111111111 K
1/
1*
#75500
0C
0/
b100 8"
0*
#76000
1"
b100 E"
1C
1/
1*
#76500
0C
0/
b100000 5"
b110000 4"
b1000010000000001010001101 2"
b1010001101 6"
b1101 3"
b1010 @"
b1000 >"
b1000 ="
0*
#77000
0"
b0 E"
1C
1/
1*
#77500
0C
0/
1)
b10101001010010000110101010101 (
b10101001010010000110101010101 0"
b10101001010010000110101010101 B"
b1100 :"
0*
#78000
b110100 L"
1C
1/
b110101010101 G"
b10101 F"
b10101 P"
b1 M"
b1001 O"
b1001 N"
1*
#78500
0C
0/
b1 8"
0)
bx (
bx 0"
bx B"
0*
#79000
b110101010101 7
b110101010101 &
b110101010101 :
b110101010101 I"
b1 E"
1C
1/
1*
#79500
0C
0/
b10 8"
0*
#80000
b110100 '
b110100 /"
b110100 H"
b10 E"
b100110 $
b100110 8
b100110 C"
1C
b100110 2
b100110 %"
b110101010101 '"
b110101010101 @
b110101010101 L
1/
1*
#80500
0C
0/
b11 8"
0*
#81000
b100110 ["
b11 E"
1C
b100110 K
1/
1*
#81500
0C
0/
b100 8"
0*
#82000
1"
b100 E"
1C
1/
1*
#82500
0C
0/
b100000 5"
b110100 4"
b1001010010000110101010101 2"
b110101010101 6"
b10101 3"
b10101 @"
b1 <"
b1001 >"
b1001 ="
0*
#83000
0"
b0 E"
1C
1/
1*
#83500
0C
0/
1)
b10101010010100000111000010100 (
b10101010010100000111000010100 0"
b10101010010100000111000010100 B"
b1101 :"
0*
#84000
b111000 L"
1C
1/
b111000010100 G"
b10100 F"
b11000 P"
b1010 O"
b1010 N"
1*
#84500
0C
0/
b1 8"
0)
bx (
bx 0"
bx B"
0*
#85000
b111000010011 7
b111000010011 &
b111000010011 :
b111000010011 I"
b1 E"
1C
1/
1*
#85500
0C
0/
b10 8"
0*
#86000
b111000 '
b111000 /"
b111000 H"
b10 E"
b11111111111111111111111111111001 $
b11111111111111111111111111111001 8
b11111111111111111111111111111001 C"
1C
b11111111111111111111111111111001 2
b11111111111111111111111111111001 %"
b111000010011 '"
b111000010011 @
b111000010011 L
1/
1*
#86500
0C
0/
b11 8"
0*
#87000
b11111111111111111111111111111001 \"
b11 E"
1C
b11111111111111111111111111111001 K
1/
1*
#87500
0C
0/
b100 8"
0*
#88000
1"
b100 E"
1C
1/
1*
#88500
0C
0/
b100000 5"
b111000 4"
b1010010100000111000010100 2"
b111000010100 6"
b10100 3"
b11000 @"
b1010 >"
b1010 ="
0*
#89000
0"
b0 E"
1C
1/
1*
#89500
0C
0/
1)
b10101011010110000011001011000 (
b10101011010110000011001011000 0"
b10101011010110000011001011000 B"
b1110 :"
0*
#90000
b111100 L"
1C
1/
b11001011000 G"
b11000 F"
b11001 P"
b0 M"
b1011 O"
b1011 N"
1*
#90500
0C
0/
b1 8"
0)
bx (
bx 0"
bx B"
0*
#91000
b11001011000 7
b11001011000 &
b11001011000 :
b11001011000 I"
b1 E"
1C
1/
1*
#91500
0C
0/
b10 8"
0*
#92000
b111100 '
b111100 /"
b111100 H"
b10 E"
b101010 $
b101010 8
b101010 C"
1C
b101010 2
b101010 %"
b11001011000 '"
b11001011000 @
b11001011000 L
1/
1*
#92500
0C
0/
b11 8"
0*
#93000
b101010 ]"
b11 E"
1C
b101010 K
1/
1*
#93500
0C
0/
b100 8"
0*
#94000
1"
b100 E"
1C
1/
1*
#94500
0C
0/
b100000 5"
b111100 4"
b1011010110000011001011000 2"
b11001011000 6"
b11000 3"
b11001 @"
b0 <"
b1011 >"
b1011 ="
0*
#95000
0"
b0 E"
1C
1/
1*
#95500
0C
0/
1)
b10101100011000000000011001001 (
b10101100011000000000011001001 0"
b10101100011000000000011001001 B"
b1111 :"
0*
#96000
b1000000 L"
1C
1/
b11001001 G"
b1001 F"
b11 P"
b1100 O"
b1100 N"
1*
#96500
0C
0/
b1 8"
0)
bx (
bx 0"
bx B"
0*
#97000
b11001001 7
b11001001 &
b11001001 :
b11001001 I"
b1 E"
1C
1/
1*
#97500
0C
0/
b10 8"
0*
