2024_release(5_Stage)/SP_p.vcd
$date
	Mon Jan 06 03:29:23 2025
$end
$version
	Icarus Verilog
$end
$timescale
	10ps
$end
$scope module TESTBED $end
$var wire 1 ! rst_n $end
$var wire 1 " out_valid $end
$var wire 1 # mem_wen $end
$var wire 32 $ mem_dout [31:0] $end
$var wire 32 % mem_din [31:0] $end
$var wire 12 & mem_addr [11:0] $end
$var wire 32 ' inst_addr [31:0] $end
$var wire 32 ( inst [31:0] $end
$var wire 1 ) in_valid $end
$var wire 1 * clk $end
$var integer 32 + i [31:0] $end
$scope module My_MEM $end
$var wire 1 , CEN $end
$var wire 1 - OEN $end
$var wire 1 . _CEN $end
$var wire 1 / _CLK $end
$var wire 1 0 _OEN $end
$var wire 1 1 _OENi $end
$var wire 32 2 _Q [31:0] $end
$var wire 1 3 _WEN $end
$var wire 1 4 re_flag $end
$var wire 1 5 re_data_flag $end
$var wire 32 6 _D [31:0] $end
$var wire 12 7 _A [11:0] $end
$var wire 1 # WEN $end
$var wire 32 8 Q [31:0] $end
$var wire 32 9 D [31:0] $end
$var wire 1 * CLK $end
$var wire 12 : A [11:0] $end
$var parameter 32 ; BITS $end
$var parameter 32 < addr_width $end
$var parameter 12 = addrx $end
$var parameter 32 > word_depth $end
$var parameter 32 ? wordx $end
$var reg 12 @ Ai [11:0] $end
$var reg 1 A CENi $end
$var reg 32 B Di [31:0] $end
$var reg 1 C LAST_CLK $end
$var reg 12 D LAST_NOT_A [11:0] $end
$var reg 1 E LAST_NOT_CEN $end
$var reg 1 F LAST_NOT_CLK_MINH $end
$var reg 1 G LAST_NOT_CLK_MINL $end
$var reg 1 H LAST_NOT_CLK_PER $end
$var reg 32 I LAST_NOT_D [31:0] $end
$var reg 1 J LAST_NOT_WEN $end
$var reg 32 K LAST_Qi [31:0] $end
$var reg 12 L LATCHED_A [11:0] $end
$var reg 1 M LATCHED_CEN $end
$var reg 32 N LATCHED_D [31:0] $end
$var reg 1 O LATCHED_WEN $end
$var reg 12 P NOT_A [11:0] $end
$var reg 1 Q NOT_A0 $end
$var reg 1 R NOT_A1 $end
$var reg 1 S NOT_A10 $end
$var reg 1 T NOT_A11 $end
$var reg 1 U NOT_A2 $end
$var reg 1 V NOT_A3 $end
$var reg 1 W NOT_A4 $end
$var reg 1 X NOT_A5 $end
$var reg 1 Y NOT_A6 $end
$var reg 1 Z NOT_A7 $end
$var reg 1 [ NOT_A8 $end
$var reg 1 \ NOT_A9 $end
$var reg 1 ] NOT_CEN $end
$var reg 1 ^ NOT_CLK_MINH $end
$var reg 1 _ NOT_CLK_MINL $end
$var reg 1 ` NOT_CLK_PER $end
$var reg 32 a NOT_D [31:0] $end
$var reg 1 b NOT_D0 $end
$var reg 1 c NOT_D1 $end
$var reg 1 d NOT_D10 $end
$var reg 1 e NOT_D11 $end
$var reg 1 f NOT_D12 $end
$var reg 1 g NOT_D13 $end
$var reg 1 h NOT_D14 $end
$var reg 1 i NOT_D15 $end
$var reg 1 j NOT_D16 $end
$var reg 1 k NOT_D17 $end
$var reg 1 l NOT_D18 $end
$var reg 1 m NOT_D19 $end
$var reg 1 n NOT_D2 $end
$var reg 1 o NOT_D20 $end
$var reg 1 p NOT_D21 $end
$var reg 1 q NOT_D22 $end
$var reg 1 r NOT_D23 $end
$var reg 1 s NOT_D24 $end
$var reg 1 t NOT_D25 $end
$var reg 1 u NOT_D26 $end
$var reg 1 v NOT_D27 $end
$var reg 1 w NOT_D28 $end
$var reg 1 x NOT_D29 $end
$var reg 1 y NOT_D3 $end
$var reg 1 z NOT_D30 $end
$var reg 1 { NOT_D31 $end
$var reg 1 | NOT_D4 $end
$var reg 1 } NOT_D5 $end
$var reg 1 ~ NOT_D6 $end
$var reg 1 !" NOT_D7 $end
$var reg 1 "" NOT_D8 $end
$var reg 1 #" NOT_D9 $end
$var reg 1 $" NOT_WEN $end
$var reg 32 %" Qi [31:0] $end
$var reg 1 &" WENi $end
$scope function valid_address $end
$var reg 12 '" a [11:0] $end
$upscope $end
$scope task latch_inputs $end
$upscope $end
$scope task mem_cycle $end
$upscope $end
$scope task process_violations $end
$upscope $end
$scope task read_mem $end
$var reg 1 (" r_wb $end
$var reg 1 )" xflag $end
$upscope $end
$scope task update_last_notifiers $end
$upscope $end
$scope task update_logic $end
$upscope $end
$scope task update_notifier_buses $end
$upscope $end
$scope task write_mem $end
$var reg 12 *" a [11:0] $end
$var reg 32 +" d [31:0] $end
$upscope $end
$scope task write_mem_x $end
$var reg 12 ," a [11:0] $end
$upscope $end
$scope task x_inputs $end
$var integer 32 -" n [31:0] $end
$upscope $end
$scope task x_mem $end
$var integer 32 ." n [31:0] $end
$upscope $end
$upscope $end
$scope module My_PATTERN $end
$var wire 1 " out_valid $end
$var wire 32 /" inst_addr [31:0] $end
$var reg 1 * clk $end
$var reg 1 ) in_valid $end
$var reg 32 0" inst [31:0] $end
$var reg 1 ! rst_n $end
$var reg 1 1" stage2_valid $end
$var reg 1 2" stage3_valid $end
$var reg 1 3" stage4_valid $end
$var reg 1 4" stage5_valid $end
$var reg 1 5" stage_valid $end
$var real 1 6" CYCLE $end
$var integer 32 7" address [31:0] $end
$var integer 32 8" execution_num [31:0] $end
$var integer 32 9" func [31:0] $end
$var integer 32 :" golden_inst_addr_in [31:0] $end
$var integer 32 ;" golden_inst_addr_out [31:0] $end
$var integer 32 <" i [31:0] $end
$var integer 32 =" immediate [31:0] $end
$var integer 32 >" in_valid_counter [31:0] $end
$var integer 32 ?" jalpc [31:0] $end
$var integer 32 @" latency [31:0] $end
$var integer 32 A" n_func [31:0] $end
$var integer 32 B" n_imm [31:0] $end
$var integer 32 C" n_opcode [31:0] $end
$var integer 32 D" n_rd [31:0] $end
$var integer 32 E" n_rs [31:0] $end
$var integer 32 F" n_rt [31:0] $end
$var integer 32 G" n_shamt [31:0] $end
$var integer 32 H" new_rs_data [31:0] $end
$var integer 32 I" new_rt_data [31:0] $end
$var integer 32 J" opcode [31:0] $end
$var integer 32 K" out_max_latency [31:0] $end
$var integer 32 L" out_valid_counter [31:0] $end
$var integer 32 M" rd [31:0] $end
$var integer 32 N" rs [31:0] $end
$var integer 32 O" rt [31:0] $end
$var integer 32 P" seed [31:0] $end
$var integer 32 Q" shamt [31:0] $end
$var integer 32 R" stage1_inst_addr [31:0] $end
$var integer 32 S" stage2_inst_addr [31:0] $end
$var integer 32 T" stage3_inst_addr [31:0] $end
$var integer 32 U" stage4_inst_addr [31:0] $end
$var integer 32 V" stage5_inst_addr [31:0] $end
$var integer 32 W" stage_inst_addr [31:0] $end
$var integer 32 X" t [31:0] $end
$scope task check_ans_task $end
$upscope $end
$scope task check_memory_and_out_valid $end
$upscope $end
$scope task display_fail_task $end
$upscope $end
$scope task display_pass_task $end
$upscope $end
$scope task input_task $end
$upscope $end
$scope task reset_check_task $end
$upscope $end
$upscope $end
$scope module My_SP $end
$var wire 1 * clk $end
$var wire 1 ) in_valid $end
$var wire 32 Y" inst [31:0] $end
$var wire 32 Z" mem_dout [31:0] $end
$var wire 1 ! rst_n $end
$var reg 32 [" EX_MEM_alu_out [31:0] $end
$var reg 1 \" EX_MEM_in_valid $end
$var reg 1 ]" EX_MEM_mem_wen $end
$var reg 6 ^" EX_MEM_opcode [5:0] $end
$var reg 1 _" EX_MEM_reg_wen $end
$var reg 5 `" EX_MEM_rt_rd [4:0] $end
$var reg 6 a" ID_EX_funct [5:0] $end
$var reg 32 b" ID_EX_immediate [31:0] $end
$var reg 1 c" ID_EX_in_valid $end
$var reg 1 d" ID_EX_mem_wen $end
$var reg 6 e" ID_EX_opcode [5:0] $end
$var reg 5 f" ID_EX_rd [4:0] $end
$var reg 1 g" ID_EX_reg_wen $end
$var reg 5 h" ID_EX_rs [4:0] $end
$var reg 5 i" ID_EX_rt [4:0] $end
$var reg 5 j" ID_EX_shamt [4:0] $end
$var reg 6 k" IF_ID_funct [5:0] $end
$var reg 32 l" IF_ID_immediate [31:0] $end
$var reg 1 m" IF_ID_in_valid $end
$var reg 6 n" IF_ID_opcode [5:0] $end
$var reg 5 o" IF_ID_rd [4:0] $end
$var reg 5 p" IF_ID_rs [4:0] $end
$var reg 5 q" IF_ID_rt [4:0] $end
$var reg 5 r" IF_ID_shamt [4:0] $end
$var reg 32 s" MEM_WB_alu_out [31:0] $end
$var reg 1 t" MEM_WB_in_valid $end
$var reg 6 u" MEM_WB_opcode [5:0] $end
$var reg 1 v" MEM_WB_reg_wen $end
$var reg 5 w" MEM_WB_rt_rd [4:0] $end
$var reg 32 x" inst_addr [31:0] $end
$var reg 32 y" jalpc [31:0] $end
$var reg 12 z" mem_addr [11:0] $end
$var reg 32 {" mem_din [31:0] $end
$var reg 1 # mem_wen $end
$var reg 1 " out_valid $end
$var integer 32 |" i [31:0] $end
$upscope $end
$upscope $end
$scope module TESTBED $end
$scope module My_SP $end
$var reg 32 }" \r[0] [31:0] $end
$upscope $end
$upscope $end
$scope module TESTBED $end
$scope module My_SP $end
$var reg 32 ~" \r[1] [31:0] $end
$upscope $end
$upscope $end
$scope module TESTBED $end
$scope module My_SP $end
$var reg 32 !# \r[2] [31:0] $end
$upscope $end
$upscope $end
$scope module TESTBED $end
$scope module My_SP $end
$var reg 32 "# \r[3] [31:0] $end
$upscope $end
$upscope $end
$scope module TESTBED $end
$scope module My_SP $end
$var reg 32 ## \r[4] [31:0] $end
$upscope $end
$upscope $end
$scope module TESTBED $end
$scope module My_SP $end
$var reg 32 $# \r[5] [31:0] $end
$upscope $end
$upscope $end
$scope module TESTBED $end
$scope module My_SP $end
$var reg 32 %# \r[6] [31:0] $end
$upscope $end
$upscope $end
$scope module TESTBED $end
$scope module My_SP $end
$var reg 32 &# \r[7] [31:0] $end
$upscope $end
$upscope $end
$scope module TESTBED $end
$scope module My_SP $end
$var reg 32 '# \r[8] [31:0] $end
$upscope $end
$upscope $end
$scope module TESTBED $end
$scope module My_SP $end
$var reg 32 (# \r[9] [31:0] $end
$upscope $end
$upscope $end
$scope module TESTBED $end
$scope module My_SP $end
$var reg 32 )# \r[10] [31:0] $end
$upscope $end
$upscope $end
$scope module TESTBED $end
$scope module My_SP $end
$var reg 32 *# \r[11] [31:0] $end
$upscope $end
$upscope $end
$scope module TESTBED $end
$scope module My_SP $end
$var reg 32 +# \r[12] [31:0] $end
$upscope $end
$upscope $end
$scope module TESTBED $end
$scope module My_SP $end
$var reg 32 ,# \r[13] [31:0] $end
$upscope $end
$upscope $end
$scope module TESTBED $end
$scope module My_SP $end
$var reg 32 -# \r[14] [31:0] $end
$upscope $end
$upscope $end
$scope module TESTBED $end
$scope module My_SP $end
$var reg 32 .# \r[15] [31:0] $end
$upscope $end
$upscope $end
$scope module TESTBED $end
$scope module My_SP $end
$var reg 32 /# \r[16] [31:0] $end
$upscope $end
$upscope $end
$scope module TESTBED $end
$scope module My_SP $end
$var reg 32 0# \r[17] [31:0] $end
$upscope $end
$upscope $end
$scope module TESTBED $end
$scope module My_SP $end
$var reg 32 1# \r[18] [31:0] $end
$upscope $end
$upscope $end
$scope module TESTBED $end
$scope module My_SP $end
$var reg 32 2# \r[19] [31:0] $end
$upscope $end
$upscope $end
$scope module TESTBED $end
$scope module My_SP $end
$var reg 32 3# \r[20] [31:0] $end
$upscope $end
$upscope $end
$scope module TESTBED $end
$scope module My_SP $end
$var reg 32 4# \r[21] [31:0] $end
$upscope $end
$upscope $end
$scope module TESTBED $end
$scope module My_SP $end
$var reg 32 5# \r[22] [31:0] $end
$upscope $end
$upscope $end
$scope module TESTBED $end
$scope module My_SP $end
$var reg 32 6# \r[23] [31:0] $end
$upscope $end
$upscope $end
$scope module TESTBED $end
$scope module My_SP $end
$var reg 32 7# \r[24] [31:0] $end
$upscope $end
$upscope $end
$scope module TESTBED $end
$scope module My_SP $end
$var reg 32 8# \r[25] [31:0] $end
$upscope $end
$upscope $end
$scope module TESTBED $end
$scope module My_SP $end
$var reg 32 9# \r[26] [31:0] $end
$upscope $end
$upscope $end
$scope module TESTBED $end
$scope module My_SP $end
$var reg 32 :# \r[27] [31:0] $end
$upscope $end
$upscope $end
$scope module TESTBED $end
$scope module My_SP $end
$var reg 32 ;# \r[28] [31:0] $end
$upscope $end
$upscope $end
$scope module TESTBED $end
$scope module My_SP $end
$var reg 32 <# \r[29] [31:0] $end
$upscope $end
$upscope $end
$scope module TESTBED $end
$scope module My_SP $end
$var reg 32 =# \r[30] [31:0] $end
$upscope $end
$upscope $end
$scope module TESTBED $end
$scope module My_SP $end
$var reg 32 ># \r[31] [31:0] $end
$upscope $end
$upscope $end
$enddefinitions $end
$comment Show the parameter values. $end
$dumpall
bx ?
b1000000000000 >
bx =
b1100 <
b100000 ;
$end
#0
$dumpvars
bx >#
bx =#
bx <#
bx ;#
bx :#
bx 9#
bx 8#
bx 7#
bx 6#
bx 5#
bx 4#
bx 3#
bx 2#
bx 1#
bx 0#
bx /#
bx .#
bx -#
bx ,#
bx +#
bx *#
bx )#
bx (#
bx '#
bx &#
bx %#
bx $#
bx ##
bx "#
bx !#
bx ~"
bx }"
bx |"
bx {"
bx z"
bx y"
bx x"
bx w"
xv"
bx u"
xt"
bx s"
bx r"
bx q"
bx p"
bx o"
bx n"
xm"
bx l"
bx k"
bx j"
bx i"
bx h"
xg"
bx f"
bx e"
xd"
xc"
bx b"
bx a"
bx `"
x_"
bx ^"
x]"
x\"
bx ["
bx Z"
bx Y"
bx X"
bx W"
bx V"
bx U"
bx T"
bx S"
b100 R"
bx Q"
b1000000 P"
bx O"
bx N"
bx M"
b0 L"
b1010 K"
bx J"
bx I"
bx H"
bx G"
bx F"
bx E"
bx D"
bx C"
bx B"
bx A"
b11111111111111111111111111111111 @"
bx ?"
b0 >"
bx ="
b100000 <"
b0 ;"
b0 :"
bx 9"
b1111101000 8"
bx 7"
r10 6"
x5"
x4"
x3"
x2"
x1"
bx 0"
bx /"
bx ."
bx -"
bx ,"
bx +"
bx *"
x)"
x("
bx '"
x&"
bx %"
x$"
x#"
x""
x!"
x~
x}
x|
x{
xz
xy
xx
xw
xv
xu
xt
xs
xr
xq
xp
xo
xn
xm
xl
xk
xj
xi
xh
xg
xf
xe
xd
xc
xb
bx a
x`
x_
x^
x]
x\
x[
xZ
xY
xX
xW
xV
xU
xT
xS
xR
xQ
bx P
xO
bx N
xM
bx L
bx K
xJ
bx I
xH
xG
xF
xE
bx D
0C
bx B
xA
bx @
bx :
bx 9
bx 8
bx 7
bx 6
x5
14
x3
bx 2
01
00
0/
0.
0-
0,
b100000 +
0*
0)
bx (
bx '
bx &
bx %
bx $
x#
x"
1!
$end
#500
0*
#1000
b0 6
b0 7
05
13
b0 >#
b0 =#
b0 <#
b0 ;#
b0 :#
b0 9#
b0 8#
b0 7#
b0 6#
b0 5#
b0 4#
b0 3#
b0 2#
b0 1#
b0 0#
b0 /#
b0 .#
b0 -#
b0 ,#
b0 +#
b0 *#
b0 )#
b0 (#
b0 '#
b0 &#
b0 %#
b0 $#
b0 ##
b0 "#
b0 !#
b0 ~"
b0 }"
b0 l"
b0 k"
b0 r"
b0 o"
b0 q"
b0 p"
b0 n"
0m"
b0 %
b0 9
b0 {"
b0 &
b0 :
b0 z"
1#
b0 '
b0 /"
b0 x"
0"
0c"
1d"
1g"
b0 b"
b0 a"
b0 j"
b0 f"
b0 i"
b0 h"
b0 e"
0\"
b0 ^"
1_"
1]"
b0 `"
b0 ["
b0 u"
1v"
b0 w"
b0 s"
b100000 |"
0!
#2000
b100000 <"
1!
#3000
0t"
b11111111111111111111111111111101 $
b11111111111111111111111111111101 8
b11111111111111111111111111111101 Z"
1C
b11111111111111111111111111111101 2
b11111111111111111111111111111101 %"
b0 '"
0)"
1("
b0 B
b0 @
1&"
0A
0M
1O
b0 N
b0 L
1/
b11 X"
b10000110111001101000001 P"
1*
#3500
0C
0/
0*
#4000
1C
b11111111111111111111111111111101 K
1/
1*
#4500
0C
0/
0*
#5000
1C
1/
1*
#5500
05"
04"
03"
02"
b0 S"
11"
0C
0/
b0 @"
b1 >"
b100 :"
b0 I"
b0 H"
b0 R"
b1001000010101000000000110 7"
b101000000000110 ="
b110 9"
b0 Q"
b1010 M"
b1 O"
b1001 N"
b0 J"
1)
b1001000010101000000000110 (
b1001000010101000000000110 0"
b1001000010101000000000110 Y"
0*
#6000
b100 '
b100 /"
b100 x"
b101000000000110 l"
b110 k"
b1010 o"
b1 q"
b1001 p"
1m"
1C
1/
1*
#6500
b0 T"
12"
b100 S"
0C
0/
b1 @"
b10 >"
b1000 :"
b100 R"
b111100111100 7"
b111100111100 ="
b111100 9"
b11100 Q"
b1 M"
b0 O"
b0 N"
b101 J"
b10100000000000000111100111100 (
b10100000000000000111100111100 0"
b10100000000000000111100111100 Y"
0*
#7000
0g"
b101000000000110 b"
b110 a"
b1010 f"
b1 i"
b1001 h"
1c"
b1000 '
b1000 /"
b1000 x"
b111100111100 l"
b111100 k"
b11100 r"
b1 o"
b0 q"
b0 p"
b101 n"
1C
1/
1*
#7500
b0 U"
13"
b100 T"
b1000 S"
0C
0/
b10 @"
b11 >"
b1100 :"
b1000 R"
b101100000000000010100 7"
b10100 ="
b10100 9"
b0 Q"
b0 M"
b10110 O"
b1001 J"
b100100000101100000000000010100 (
b100100000101100000000000010100 0"
b100100000101100000000000010100 Y"
0*
#8000
b1100 '
b1100 /"
b1100 x"
b10100 l"
b10100 k"
b0 r"
b0 o"
b10110 q"
b1001 n"
b111100111100 b"
b111100 a"
b11100 j"
b1 f"
b0 i"
b0 h"
b101 e"
b1010 `"
b11111111111111111111111111111111 ["
0_"
1\"
1C
1/
1*
#8500
15"
b0 V"
14"
b100 U"
b1000 T"
b1100 S"
0C
0/
b11 @"
b100 >"
b10000 :"
b1100 R"
b1000010000001111111110 7"
b1111111110 ="
b111110 9"
b1111 Q"
b1 O"
b1 N"
b101 J"
b10100001000010000001111111110 (
b10100001000010000001111111110 0"
b10100001000010000001111111110 Y"
0*
#9000
b111100111100 7
b1010 w"
b11111111111111111111111111111111 s"
0v"
1t"
b0 `"
b111100111100 &
b111100111100 :
b111100111100 z"
b111100111100 ["
b101 ^"
b10100 b"
b10100 a"
b0 j"
b0 f"
b10110 i"
b1001 e"
b10000 '
b10000 /"
b10000 x"
b1111111110 l"
b111110 k"
b1111 r"
b1 q"
b1 p"
b101 n"
1C
1/
1*
#9500
b0 W"
b100 V"
b1000 U"
b1100 T"
b10000 S"
0C
0/
b100 @"
b101 >"
b10100 :"
b0xxxxxxxxxxxxxxxx B"
b0xxxxxx A"
b0xxxxx G"
b0xxxxx D"
b0xxxxx F"
b0xxxxx E"
b0xxxxxx C"
b10000 R"
b10000100000110011101101 7"
b110011101101 ="
b101101 9"
b10011 Q"
b1 M"
b10 O"
b10 N"
b10100010000100000110011101101 (
b10100010000100000110011101101 0"
b10100010000100000110011101101 Y"
0*
#10000
b10100 '
b10100 /"
b10100 x"
b110011101101 l"
b101101 k"
b10011 r"
b1 o"
b10 q"
b10 p"
b1111111110 b"
b111110 a"
b1111 j"
b1 i"
b1 h"
b101 e"
b10110 `"
b101000000000000000000 ["
b1001 ^"
b101 u"
b0 w"
b111100111100 s"
b11111111111111111111111111111111 )#
1"
b1100 $
b1100 8
b1100 Z"
1C
b1100 2
b1100 %"
b111100111100 '"
b111100111100 @
b111100111100 L
1/
1*
#10500
b100 W"
b1000 V"
b1100 U"
b10000 T"
b10100 S"
0C
0/
b100000 <"
b1 L"
b0 J"
b110 >"
b11000 :"
b101000000000110 B"
b110 A"
b0 G"
b1010 D"
b1 F"
b1001 E"
b0 C"
b10100 R"
b11000110000000010001010 7"
b101000000000110 ="
b110 9"
b0 Q"
b1010 M"
b1 O"
b1001 N"
b10100011000110000000010001010 (
b10100011000110000000010001010 0"
b10100011000110000000010001010 Y"
0*
#11000
b1111111110 7
b1100 }"
b1001 u"
b10110 w"
b101000000000000000000 s"
b1 `"
b1111111110 &
b1111111110 :
b1111111110 z"
b1111111110 ["
b101 ^"
b110011101101 b"
b101101 a"
b10011 j"
b1 f"
b10 i"
b10 h"
b11000 '
b11000 /"
b11000 x"
b10001010 l"
b1010 k"
b10 r"
b0 o"
b11 q"
b11 p"
1C
b1100 K
1/
1*
#11500
b1000 W"
b1100 V"
b10000 U"
b10100 T"
b11000 S"
0C
0/
b100000 <"
b10 L"
b111 >"
b11100 :"
b111100111100 B"
b111100 A"
b11100 G"
b1 D"
b0 F"
b0 E"
b101 C"
b11000 R"
b100001000000011010000011 7"
b111100111100 ="
b111100 9"
b11100 Q"
b1 M"
b0 O"
b0 N"
b101 J"
b10100100001000000011010000011 (
b10100100001000000011010000011 0"
b10100100001000000011010000011 Y"
0*
#12000
b110011101101 7
b11100 '
b11100 /"
b11100 x"
b11010000011 l"
b11 k"
b11010 r"
b100 q"
b100 p"
b10001010 b"
b1010 a"
b10 j"
b0 f"
b11 i"
b11 h"
b10 `"
b110011101101 &
b110011101101 :
b110011101101 z"
b110011101101 ["
b101 u"
b1 w"
b1111111110 s"
b101000000000000000000 5#
b0 $
b0 8
b0 Z"
1C
b0 2
b0 %"
b1111111110 '"
b1111111110 @
b1111111110 L
1/
1*
#12500
b1100 W"
b10000 V"
b10100 U"
b11000 T"
b11100 S"
0C
0/
b100000 <"
b11 L"
b1000 >"
b100000 :"
b101000000000000000000 I"
b10100 B"
b10100 A"
b0 G"
b0 D"
b10110 F"
b1001 C"
b1100 H"
b11100 R"
b101100000000000000000 7"
b10100 ="
b10100 9"
b0 Q"
b0 M"
b10110 O"
b1001 J"
b100100000101100000000000000000 (
b100100000101100000000000000000 0"
b100100000101100000000000000000 Y"
0*
#13000
b10001010 7
b0 ~"
b10 w"
b110011101101 s"
b11 `"
b10001010 &
b10001010 :
b10001010 z"
b10001010 ["
b11010000011 b"
b11 a"
b11010 j"
b100 i"
b100 h"
b100000 '
b100000 /"
b100000 x"
b0 l"
b0 k"
b0 r"
b10110 q"
b0 p"
b1001 n"
b11100 $
b11100 8
b11100 Z"
1C
b11100 2
b11100 %"
b110011101101 '"
b110011101101 @
b0 K
b110011101101 L
1/
1*
#13500
b10000 W"
b10100 V"
b11000 U"
b11100 T"
b100000 S"
0C
0/
b100000 <"
b100 L"
b1001 >"
b100100 :"
b1111111110 B"
b111110 A"
b1111 G"
b1 F"
b1 E"
b101 C"
b0 I"
b0 H"
b100000 R"
b101001010000100010011000 7"
b1111111110 ="
b111110 9"
b1111 Q"
b0 M"
b1 O"
b1 N"
b101 J"
b10100101001010000100010011000 (
b10100101001010000100010011000 0"
b10100101001010000100010011000 Y"
0*
#14000
b11010000011 7
b100100 '
b100100 /"
b100100 x"
b100010011000 l"
b11000 k"
b10 r"
b1 o"
b101 q"
b101 p"
b101 n"
b0 b"
b0 a"
b0 j"
b10110 i"
b0 h"
b1001 e"
b100 `"
b11010000011 &
b11010000011 :
b11010000011 z"
b11010000011 ["
b11 w"
b10001010 s"
b11100 !#
b101111 $
b101111 8
b101111 Z"
1C
b101111 2
b101111 %"
b10001010 '"
b10001010 @
b11100 K
b10001010 L
1/
1*
#14500
b10100 W"
b11000 V"
b11100 U"
b100000 T"
b100100 S"
0C
0/
b100000 <"
b101 L"
b1 M"
b1010 >"
b101000 :"
b110011101101 B"
b101101 A"
b10011 G"
b1 D"
b10 F"
b10 E"
b100100 R"
b110001100000011001110001 7"
b110011101101 ="
b101101 9"
b10011 Q"
b10 O"
b10 N"
b10100110001100000011001110001 (
b10100110001100000011001110001 0"
b10100110001100000011001110001 Y"
0*
#15000
b101111 "#
b100 w"
b11010000011 s"
b10110 `"
b0 ["
b1001 ^"
b100010011000 b"
b11000 a"
b10 j"
b1 f"
b101 i"
b101 h"
b101 e"
b101000 '
b101000 /"
b101000 x"
b11001110001 l"
b110001 k"
b11001 r"
b0 o"
b110 q"
b110 p"
b110000 $
b110000 8
b110000 Z"
1C
b110000 2
b110000 %"
b11010000011 '"
b11010000011 @
b101111 K
b11010000011 L
1/
1*
#15500
b11000 W"
b11100 V"
b100000 U"
b100100 T"
b101000 S"
0C
0/
b100000 <"
b110 L"
b1011 >"
b101100 :"
b10001010 B"
b1010 A"
b10 G"
b0 D"
b11 F"
b11 E"
b101000 R"
b111001110000010010110111 7"
b10001010 ="
b1010 9"
b10 Q"
b0 M"
b11 O"
b11 N"
b10100111001110000010010110111 (
b10100111001110000010010110111 0"
b10100111001110000010010110111 Y"
0*
#16000
b100010011000 7
b101100 '
b101100 /"
b101100 x"
b10010110111 l"
b110111 k"
b10010 r"
b111 q"
b111 p"
b11001110001 b"
b110001 a"
b11001 j"
b0 f"
b110 i"
b110 h"
b101 `"
b100010011000 &
b100010011000 :
b100010011000 z"
b100010011000 ["
b101 ^"
b1001 u"
b10110 w"
b0 s"
b110000 ##
1C
b110000 K
1/
1*
#16500
b11100 W"
b100000 V"
b100100 U"
b101000 T"
b101100 S"
0C
0/
b100000 <"
b111 L"
b1100 >"
b110000 :"
b11010000011 B"
b11 A"
b11010 G"
b100 F"
b100 E"
b101100 R"
b1000010000000001010001101 7"
b11010000011 ="
b11 9"
b11010 Q"
b100 O"
b100 N"
b10101000010000000001010001101 (
b10101000010000000001010001101 0"
b10101000010000000001010001101 Y"
0*
#17000
b11001110001 7
b0 5#
b101 u"
b101 w"
b100010011000 s"
b110 `"
b11001110001 &
b11001110001 :
b11001110001 z"
b11001110001 ["
b10010110111 b"
b110111 a"
b10010 j"
b111 i"
b111 h"
b110000 '
b110000 /"
b110000 x"
b1010001101 l"
b1101 k"
b1010 r"
b1000 q"
b1000 p"
b11111111111111111111111111111110 $
b11111111111111111111111111111110 8
b11111111111111111111111111111110 Z"
1C
b11111111111111111111111111111110 2
b11111111111111111111111111111110 %"
b100010011000 '"
b100010011000 @
b100010011000 L
1/
1*
#17500
b100000 W"
b100100 V"
b101000 U"
b101100 T"
b110000 S"
0C
0/
b100000 <"
b1000 L"
b1001 J"
b1101 >"
b110100 :"
b0 B"
b0 A"
b0 G"
b10110 F"
b0 E"
b1001 C"
b110000 R"
b1001010010000110101010101 7"
b0 ="
b0 9"
b0 Q"
b0 M"
b10110 O"
b0 N"
b10101001010010000110101010101 (
b10101001010010000110101010101 0"
b10101001010010000110101010101 Y"
0*
#18000
b10010110111 7
b110100 '
b110100 /"
b110100 x"
b110101010101 l"
b10101 k"
b10101 r"
b1 o"
b1001 q"
b1001 p"
b1010001101 b"
b1101 a"
b1010 j"
b1000 i"
b1000 h"
b111 `"
b10010110111 &
b10010110111 :
b10010110111 z"
b10010110111 ["
b110 w"
b11001110001 s"
b11111111111111111111111111111110 $#
b11111111111111111111111111110111 $
b11111111111111111111111111110111 8
b11111111111111111111111111110111 Z"
1C
b11111111111111111111111111110111 2
b11111111111111111111111111110111 %"
b11001110001 '"
b11001110001 @
b11111111111111111111111111111110 K
b11001110001 L
1/
1*
#18500
b100100 W"
b101000 V"
b101100 U"
b110000 T"
b110100 S"
0C
0/
b100000 <"
b1001 L"
b1110 >"
b111000 :"
b100010011000 B"
b11000 A"
b10 G"
b1 D"
b101 F"
b101 E"
b101 C"
b11111111111111111111111111111111 I"
b11111111111111111111111111111111 H"
b110100 R"
b1010010100000111000010100 7"
b100010011000 ="
b11000 9"
b10 Q"
b1 M"
b101 O"
b101 N"
b101 J"
b10101010010100000111000010100 (
b10101010010100000111000010100 0"
b10101010010100000111000010100 Y"
0*
#19000
b1010001101 7
b11111111111111111111111111110111 %#
b111 w"
b10010110111 s"
b1000 `"
b1010001101 &
b1010001101 :
b1010001101 z"
b1010001101 ["
b110101010101 b"
b10101 a"
b10101 j"
b1 f"
b1001 i"
b1001 h"
b111000 '
b111000 /"
b111000 x"
b111000010100 l"
b10100 k"
b11000 r"
b1010 q"
b1010 p"
b110000 $
b110000 8
b110000 Z"
1C
b110000 2
b110000 %"
b10010110111 '"
b10010110111 @
b11111111111111111111111111110111 K
b10010110111 L
1/
1*
#19500
b101000 W"
b101100 V"
b110000 U"
b110100 T"
b111000 S"
0C
0/
b100000 <"
b1010 L"
b110001 9"
b1111 >"
b111100 :"
b11001110001 B"
b110001 A"
b11001 G"
b0 D"
b110 F"
b110 E"
b0 I"
b0 H"
b111000 R"
b1011010110000011001011000 7"
b11001110001 ="
b11001 Q"
b0 M"
b110 O"
b110 N"
b10101011010110000011001011000 (
b10101011010110000011001011000 0"
b10101011010110000011001011000 Y"
0*
#20000
b110101010101 7
b111100 '
b111100 /"
b111100 x"
b11001011000 l"
b11000 k"
b11001 r"
b0 o"
b1011 q"
b1011 p"
b111000010100 b"
b10100 a"
b11000 j"
b1010 i"
b1010 h"
b1001 `"
b110101010101 &
b110101010101 :
b110101010101 z"
b110101010101 ["
b1000 w"
b1010001101 s"
b110000 &#
b11111111111111111111111111111111 $
b11111111111111111111111111111111 8
b11111111111111111111111111111111 Z"
1C
b11111111111111111111111111111111 2
b11111111111111111111111111111111 %"
b1010001101 '"
b1010001101 @
b110000 K
b1010001101 L
1/
1*
#20500
b101100 W"
b110000 V"
b110100 U"
b111000 T"
b111100 S"
0C
0/
b100000 <"
b1011 L"
b10000 >"
b1000000 :"
b10010110111 B"
b110111 A"
b10010 G"
b111 F"
b111 E"
b111100 R"
b1100011000000000011001001 7"
b10010110111 ="
b110111 9"
b10010 Q"
b111 O"
b111 N"
b10101100011000000000011001001 (
b10101100011000000000011001001 0"
b10101100011000000000011001001 Y"
0*
